"Mumbai","Andheri(East)"
"Mumbai","Andheri(West)"
"Mumbai","Borivali (East)"
"Mumbai","Borivali (West)"
"Mumbai","Chandivali "
"Mumbai","Charkop "
"Mumbai","Dahisar"
"Mumbai"," Goregaon (East) "
"Mumbai"," Goregaon (West)"
"Mumbai","  I C Colony "
"Mumbai","  Kandivali (West)"
"Mumbai","   Lokhandwala"
"Mumbai","    Malad (East)"
"Mumbai","    Malad (West)"
"Mumbai"," Airoli"
"Mumbai"," Belapur "
"Mumbai"," Ghansoli "
"Mumbai"," Kalamboli"
"Mumbai","  Khandeshwar "
"Mumbai","   Koperkhairane"
"Mumbai","    Nerul "
"Mumbai","    Panvel "
"Mumbai","    Roadpali "
"Mumbai","     Sanpada"
"Mumbai","      Sea Woods "
"Mumbai","       Taloja Panchanand "
"Mumbai","        Ulwe "
"Mumbai","         Vashi "
"Mumbai","          new panvel "
"Mumbai","           palm beach "
"Thane"," Dhokali Naka"
"Thane","  G B Road "
"Thane","  Ghodbunder Road "
"Thane","  Hiranandani Estate "
"Thane","  Hiranandani Meadows"
"Thane","   Kasar vadavali"
"Thane","    Kolshe Road"
"Thane","     Majiwada"
"Thane","      Manpada"
"Thane","       Pokharan Road "
"Thane","        Pokhran-2"
"Thane","         Thane (East) "
"Thane","          Thane West "
"Thane","           Vartak Nagar"
"Thane","            Vasant Vihar "
"Thane"," Ambernath "
"Thane"," Asangaon "
"Thane","  Badlapur "
"Thane","   Bhiwandi "
"Thane","   Dombivili (East) "
"Thane","    Dombivili (West) "
"Thane","     Kalyan (East) "
"Thane","      Kalyan (West) "
"Thane","       Karjat "
"Thane","       Neral "
"Thane","        Titwala "
"Mumbai"," Bhandup (West) "
"Mumbai","  Chembur (East) "
"Mumbai","   Ghatkopar (East) "
"Mumbai","    Ghatkopar West"
"Mumbai","     Hiranandani Gardens - Powai "
"Mumbai","      Mulund (East) "
"Mumbai","       Mulund (West) "
"Mumbai","        Powai"
"Mumbai","         Sion (East) "
"Mumbai","          kurla (west)"
"Mumbai"," Bevarly Park"
"Mumbai","  Bhayander (East)"
"Mumbai","   Boisar "
"Mumbai","    Naigaon (East) "
"Mumbai","     Nalasopara (West) "
"Mumbai","      Nallasopara "
"Mumbai","       Vasai Road "
"Mumbai","        Virar "
"Mumbai"," Cuffe Parade"
"Mumbai"," Dadar (East) "
"Mumbai","  Dadar (West) "
"Mumbai","   Lower Parel "
"Mumbai","    Mahalaxmi "
"Mumbai","     Marine Drive "
"Mumbai","      Napean Sea Road "
"Mumbai","       Parel "
"Mumbai","        Prabhadevi "
"Mumbai","         Tardeo "
"Mumbai","          Worli "
"Mumbai"," Chembur "
"Mumbai","  Deonar "
"Mumbai","   Sewri "
"Mumbai","    Wadala"
"Mumbai"," Bandra (East) "
"Mumbai","  Bandra (West)"
"Mumbai","  Juhu"
"Mumbai","   Khar"
"Mumbai","  Santacruz (East) "
"Mumbai","  Santacruz (West)"
